Nodes/Edges;1;2;3;4;5;6;7;8;9;10;11;12;13
A;-;B;C;-;-;-;-;-;-;-;-;-;-
B;-;-;-;A;C;-;-;-;-;-;-;-;-
C;-;-;-;-;-;D;E;-;-;-;-;-;-
D;-;-;-;-;-;-;-;C;E;-;ENDPOINT_1;-;-
E;-;-;-;-;-;-;-;-;-;F;-;-;-
F;-;-;-;-;-;-;-;-;-;-;-;E;ENDPOINT_2
START;A;-;-;-;-;-;-;-;-;-;-;-;-
ENDPOINT_1;-;-;-;-;-;-;-;-;-;-;-;-;-
ENDPOINT_2;-;-;-;-;-;-;-;-;-;-;-;-;-
